HW2
…
Q3.b

In part b, we concatenate the time series of X,Y and Z axis column wise. Which can be interpreted as a row contains class(person) id, X , Y and Z data. An example tribble:

## # A tibble: 2,520 x 4
##       id      X     Y      Z
##    <dbl>  <dbl> <dbl>  <dbl>
##  1     1 -0.791 -1.96 -0.249
##  2     1 -0.791 -1.96 -0.249
##  3     1 -0.796 -1.96 -0.251
##  4     1 -0.810 -1.95 -0.259
##  5     1 -0.849 -1.92 -0.280
##  6     1 -0.903 -1.87 -0.309
##  7     1 -0.931 -1.85 -0.324
##  8     1 -0.951 -1.84 -0.334
##  9     1 -0.951 -1.84 -0.334
## 10     1 -0.951 -1.84 -0.334
## # ... with 2,510 more rows
…
